{
    "name": "test-network-artist",
    "version": "1.0.0",
    "client": {
        "organization": "Artist",
        "connection": {
            "timeout": {
                "peer": {
                    "endorser": "300"
                }
            }
        }
    },
    "organizations": {
        "artist": {
            "mspid": "ArtistMSP",
            "peers": [
                "peer0.artist.musicx.com"
            ],
            "certificateAuthorities": [
                "ca.artist.musicx.com"
            ]
        }
    },
    "peers": {
        "peer0.artist.musicx.com": {
            "url": "grpcs://localhost:7051",
            "tlsCACerts": {
                "pem": "-----BEGIN CERTIFICATE-----\nMIICFjCCAb2gAwIBAgIUWZgD9kkSp9SdYnll6lxiHgOliMowCgYIKoZIzj0EAwIw\naDELMAkGA1UEBhMCVVMxFzAVBgNVBAgTDk5vcnRoIENhcm9saW5hMRQwEgYDVQQK\nEwtIeXBlcmxlZGdlcjEPMA0GA1UECxMGRmFicmljMRkwFwYDVQQDExBmYWJyaWMt\nY2Etc2VydmVyMB4XDTIxMTExMDExNTEwMFoXDTM2MTEwNjExNTEwMFowaDELMAkG\nA1UEBhMCVVMxFzAVBgNVBAgTDk5vcnRoIENhcm9saW5hMRQwEgYDVQQKEwtIeXBl\ncmxlZGdlcjEPMA0GA1UECxMGRmFicmljMRkwFwYDVQQDExBmYWJyaWMtY2Etc2Vy\ndmVyMFkwEwYHKoZIzj0CAQYIKoZIzj0DAQcDQgAErmkLjbA/9yxtj8baKYYxFr5o\nG0SZlgb3wZwZtGS779/Fxn1Z0o6Rfvz4JcIhSoycYBDetqdHzGkeC35BbweJZaNF\nMEMwDgYDVR0PAQH/BAQDAgEGMBIGA1UdEwEB/wQIMAYBAf8CAQEwHQYDVR0OBBYE\nFOrdwX7qGIB5kO4ayR2+JpekXKI5MAoGCCqGSM49BAMCA0cAMEQCIAomVqqVSJpL\naw3yBwn5my1avxpIiWi9i8kpI1K7iwHZAiAHDkto5lvi1sP1VNVX8emynnEBey7F\n6CYD72munTPQuA==\n-----END CERTIFICATE-----\n"
            },
            "grpcOptions": {
                "ssl-target-name-override": "peer0.artist.musicx.com",
                "hostnameOverride": "peer0.artist.musicx.com"
            }
        }
    },
    "certificateAuthorities": {
        "ca.artist.musicx.com": {
            "url": "https://localhost:7054",
            "caName": "ca-artist",
            "tlsCACerts": {
                "pem": ["-----BEGIN CERTIFICATE-----\nMIICFjCCAb2gAwIBAgIUWZgD9kkSp9SdYnll6lxiHgOliMowCgYIKoZIzj0EAwIw\naDELMAkGA1UEBhMCVVMxFzAVBgNVBAgTDk5vcnRoIENhcm9saW5hMRQwEgYDVQQK\nEwtIeXBlcmxlZGdlcjEPMA0GA1UECxMGRmFicmljMRkwFwYDVQQDExBmYWJyaWMt\nY2Etc2VydmVyMB4XDTIxMTExMDExNTEwMFoXDTM2MTEwNjExNTEwMFowaDELMAkG\nA1UEBhMCVVMxFzAVBgNVBAgTDk5vcnRoIENhcm9saW5hMRQwEgYDVQQKEwtIeXBl\ncmxlZGdlcjEPMA0GA1UECxMGRmFicmljMRkwFwYDVQQDExBmYWJyaWMtY2Etc2Vy\ndmVyMFkwEwYHKoZIzj0CAQYIKoZIzj0DAQcDQgAErmkLjbA/9yxtj8baKYYxFr5o\nG0SZlgb3wZwZtGS779/Fxn1Z0o6Rfvz4JcIhSoycYBDetqdHzGkeC35BbweJZaNF\nMEMwDgYDVR0PAQH/BAQDAgEGMBIGA1UdEwEB/wQIMAYBAf8CAQEwHQYDVR0OBBYE\nFOrdwX7qGIB5kO4ayR2+JpekXKI5MAoGCCqGSM49BAMCA0cAMEQCIAomVqqVSJpL\naw3yBwn5my1avxpIiWi9i8kpI1K7iwHZAiAHDkto5lvi1sP1VNVX8emynnEBey7F\n6CYD72munTPQuA==\n-----END CERTIFICATE-----\n"]
            },
            "httpOptions": {
                "verify": false
            }
        }
    }
}
