[
    {
        "name":"PrivMusicCollection",
        "policy":"OR('ArtistMSP.member')",
        "requiredPeerCount": 1,
        "maxPeerCount": 1,
        "blockToLive": 0,
        "memberOnlyRead": true
    }
]